{
  "project_info": {
    "project_number": "475016334522",
    "firebase_url": "https://app-thu-chi.firebaseio.com",
    "project_id": "app-thu-chi",
    "storage_bucket": "app-thu-chi.appspot.com"
  },
  "client": [
    {
      "client_info": {
        "mobilesdk_app_id": "1:475016334522:android:7fee6b9337c9deada40683",
        "android_client_info": {
          "package_name": "com.example.app_thu_chi"
        }
      },
      "oauth_client": [
        {
          "client_id": "475016334522-330nsesm03g3j5njfr1u5gf7teh8rtun.apps.googleusercontent.com",
          "client_type": 3
        }
      ],
      "api_key": [
        {
          "current_key": "AIzaSyASLP6f_viJxxRZMUdiA2QGc4hbMsClE0E"
        }
      ],
      "services": {
        "appinvite_service": {
          "other_platform_oauth_client": [
            {
              "client_id": "475016334522-330nsesm03g3j5njfr1u5gf7teh8rtun.apps.googleusercontent.com",
              "client_type": 3
            }
          ]
        }
      }
    }
  ],
  "configuration_version": "1"
}